{
  "Aatrox": {
    "baseAttackSpeed": 0.651,
    "attackSpeedBonusLevel1": 0,
    "attackSpeedPerLevel": 2.5
  },
  "Ahri": {
    "baseAttackSpeed": 0.668,
    "attackSpeedBonusLevel1": 0,
    "attackSpeedPerLevel": 2
  },
  "Akali": {
    "baseAttackSpeed": 0.625,
    "attackSpeedBonusLevel1": 0,
    "attackSpeedPerLevel": 3.2
  },
  "Alistar": {
    "baseAttackSpeed": 0.625,
    "attackSpeedBonusLevel1": 0,
    "attackSpeedPerLevel": 2.125
  },
  "Amumu": {
    "baseAttackSpeed": 0.638,
    "attackSpeedBonusLevel1": 15.3,
    "attackSpeedPerLevel": 2.18
  },
  "Anivia": {
    "baseAttackSpeed": 0.625,
    "attackSpeedBonusLevel1": 0,
    "attackSpeedPerLevel": 1.68
  },
  "Annie": {
    "baseAttackSpeed": 0.579,
    "attackSpeedBonusLevel1": 0,
    "attackSpeedPerLevel": 1.36
  },
  "Ashe": {
    "baseAttackSpeed": 0.658,
    "attackSpeedBonusLevel1": 0,
    "attackSpeedPerLevel": 3.33
  },
  "AurelionSol": {
    "baseAttackSpeed": 0.625,
    "attackSpeedBonusLevel1": 0,
    "attackSpeedPerLevel": 1.36
  },
  "Azir": {
    "baseAttackSpeed": 0.625,
    "attackSpeedBonusLevel1": 0,
    "attackSpeedPerLevel": 1.5
  },
  "Bard": {
    "baseAttackSpeed": 0.625,
    "attackSpeedBonusLevel1": 0,
    "attackSpeedPerLevel": 2
  },
  "Blitzcrank": {
    "baseAttackSpeed": 0.625,
    "attackSpeedBonusLevel1": 0,
    "attackSpeedPerLevel": 1.13
  },
  "Brand": {
    "baseAttackSpeed": 0.625,
    "attackSpeedBonusLevel1": 0,
    "attackSpeedPerLevel": 1.36
  },
  "Braum": {
    "baseAttackSpeed": 0.644,
    "attackSpeedBonusLevel1": 0,
    "attackSpeedPerLevel": 3.5
  },
  "Caitlyn": {
    "baseAttackSpeed": 0.568,
    "attackSpeedBonusLevel1": 10,
    "attackSpeedPerLevel": 4
  },
  "Camille": {
    "baseAttackSpeed": 0.644,
    "attackSpeedBonusLevel1": 0,
    "attackSpeedPerLevel": 2.5
  },
  "Cassiopeia": {
    "baseAttackSpeed": 0.647,
    "attackSpeedBonusLevel1": 0,
    "attackSpeedPerLevel": 1.5
  },
  "Chogath": {
    "baseAttackSpeed": 0.625,
    "attackSpeedBonusLevel1": 0,
    "attackSpeedPerLevel": 1.44
  },
  "Corki": {
    "baseAttackSpeed": 0.638,
    "attackSpeedBonusLevel1": 0,
    "attackSpeedPerLevel": 2.3
  },
  "Darius": {
    "baseAttackSpeed": 0.625,
    "attackSpeedBonusLevel1": 0,
    "attackSpeedPerLevel": 1
  },
  "Diana": {
    "baseAttackSpeed": 0.625,
    "attackSpeedBonusLevel1": 0,
    "attackSpeedPerLevel": 2.25
  },
  "Draven": {
    "baseAttackSpeed": 0.679,
    "attackSpeedBonusLevel1": 0,
    "attackSpeedPerLevel": 2.7
  },
  "DrMundo": {
    "baseAttackSpeed": 0.625,
    "attackSpeedBonusLevel1": 15.3,
    "attackSpeedPerLevel": 2.8
  },
  "Ekko": {
    "baseAttackSpeed": 0.625,
    "attackSpeedBonusLevel1": 10,
    "attackSpeedPerLevel": 3.3
  },
  "Elise": {
    "baseAttackSpeed": 0.625,
    "attackSpeedBonusLevel1": 0,
    "attackSpeedPerLevel": 1.75
  },
  "Evelynn": {
    "baseAttackSpeed": 0.667,
    "attackSpeedBonusLevel1": 0,
    "attackSpeedPerLevel": 2.1
  },
  "Ezreal": {
    "baseAttackSpeed": 0.625,
    "attackSpeedBonusLevel1": 0,
    "attackSpeedPerLevel": 1.5
  },
  "Fiddlesticks": {
    "baseAttackSpeed": 0.625,
    "attackSpeedBonusLevel1": 0,
    "attackSpeedPerLevel": 2.11
  },
  "Fiora": {
    "baseAttackSpeed": 0.69,
    "attackSpeedBonusLevel1": 0,
    "attackSpeedPerLevel": 3.2
  },
  "Fizz": {
    "baseAttackSpeed": 0.658,
    "attackSpeedBonusLevel1": 0,
    "attackSpeedPerLevel": 3.1
  },
  "Galio": {
    "baseAttackSpeed": 0.625,
    "attackSpeedBonusLevel1": 0,
    "attackSpeedPerLevel": 1.5
  },
  "Gangplank": {
    "baseAttackSpeed": 0.658,
    "attackSpeedBonusLevel1": 0,
    "attackSpeedPerLevel": 3.2
  },
  "Garen": {
    "baseAttackSpeed": 0.625,
    "attackSpeedBonusLevel1": 0,
    "attackSpeedPerLevel": 2.9
  },
  "Gnar": {
    "baseAttackSpeed": 0.625,
    "attackSpeedBonusLevel1": 5.5,
    "attackSpeedPerLevel": 6
  },
  "Gragas": {
    "baseAttackSpeed": 0.625,
    "attackSpeedBonusLevel1": 8,
    "attackSpeedPerLevel": 2.05
  },
  "Graves": {
    "baseAttackSpeed": 0.481,
    "attackSpeedBonusLevel1": 0,
    "attackSpeedPerLevel": 2.6
  },
  "Hecarim": {
    "baseAttackSpeed": 0.67,
    "attackSpeedBonusLevel1": 0,
    "attackSpeedPerLevel": 2.5
  },
  "Heimerdinger": {
    "baseAttackSpeed": 0.625,
    "attackSpeedBonusLevel1": 0,
    "attackSpeedPerLevel": 1.36
  },
  "Illaoi": {
    "baseAttackSpeed": 0.571,
    "attackSpeedBonusLevel1": 0,
    "attackSpeedPerLevel": 2.5
  },
  "Irelia": {
    "baseAttackSpeed": 0.625,
    "attackSpeedBonusLevel1": 0,
    "attackSpeedPerLevel": 2.5
  },
  "Ivern": {
    "baseAttackSpeed": 0.644,
    "attackSpeedBonusLevel1": 0,
    "attackSpeedPerLevel": 3.4
  },
  "Janna": {
    "baseAttackSpeed": 0.625,
    "attackSpeedBonusLevel1": 0,
    "attackSpeedPerLevel": 2.95
  },
  "JarvanIV": {
    "baseAttackSpeed": 0.658,
    "attackSpeedBonusLevel1": 0,
    "attackSpeedPerLevel": 2.5
  },
  "Jax": {
    "baseAttackSpeed": 0.638,
    "attackSpeedBonusLevel1": 0,
    "attackSpeedPerLevel": 3.4
  },
  "Jayce": {
    "baseAttackSpeed": 0.658,
    "attackSpeedBonusLevel1": 0,
    "attackSpeedPerLevel": 3
  },
  "Jhin": {
    "baseAttackSpeed": 0.625,
    "attackSpeedBonusLevel1": 0,
    "attackSpeedPerLevel": 0
  },
  "Jinx": {
    "baseAttackSpeed": 0.625,
    "attackSpeedBonusLevel1": 0,
    "attackSpeedPerLevel": 1
  },
  "Kaisa": {
    "baseAttackSpeed": 0.644,
    "attackSpeedBonusLevel1": 0,
    "attackSpeedPerLevel": 1.8
  },
  "Kalista": {
    "baseAttackSpeed": 0.694,
    "attackSpeedBonusLevel1": 0,
    "attackSpeedPerLevel": 3.5
  },
  "Karma": {
    "baseAttackSpeed": 0.625,
    "attackSpeedBonusLevel1": 0,
    "attackSpeedPerLevel": 2.3
  },
  "Karthus": {
    "baseAttackSpeed": 0.625,
    "attackSpeedBonusLevel1": 0,
    "attackSpeedPerLevel": 2.11
  },
  "Kassadin": {
    "baseAttackSpeed": 0.64,
    "attackSpeedBonusLevel1": 0,
    "attackSpeedPerLevel": 3.7
  },
  "Katarina": {
    "baseAttackSpeed": 0.658,
    "attackSpeedBonusLevel1": 0,
    "attackSpeedPerLevel": 2.74
  },
  "Kayle": {
    "baseAttackSpeed": 0.638,
    "attackSpeedBonusLevel1": 10,
    "attackSpeedPerLevel": 2.2
  },
  "Kayn": {
    "baseAttackSpeed": 0.669,
    "attackSpeedBonusLevel1": 0,
    "attackSpeedPerLevel": 2.7
  },
  "Kennen": {
    "baseAttackSpeed": 0.69,
    "attackSpeedBonusLevel1": 0,
    "attackSpeedPerLevel": 3.4
  },
  "Khazix": {
    "baseAttackSpeed": 0.668,
    "attackSpeedBonusLevel1": 0,
    "attackSpeedPerLevel": 2.7
  },
  "Kindred": {
    "baseAttackSpeed": 0.625,
    "attackSpeedBonusLevel1": 0,
    "attackSpeedPerLevel": 3.5
  },
  "Kled": {
    "baseAttackSpeed": 0.625,
    "attackSpeedBonusLevel1": 0,
    "attackSpeedPerLevel": 3.5
  },
  "KogMaw": {
    "baseAttackSpeed": 0.665,
    "attackSpeedBonusLevel1": 0,
    "attackSpeedPerLevel": 2.65
  },
  "Leblanc": {
    "baseAttackSpeed": 0.625,
    "attackSpeedBonusLevel1": 0,
    "attackSpeedPerLevel": 1.4
  },
  "LeeSin": {
    "baseAttackSpeed": 0.651,
    "attackSpeedBonusLevel1": 0,
    "attackSpeedPerLevel": 3
  },
  "Leona": {
    "baseAttackSpeed": 0.625,
    "attackSpeedBonusLevel1": 0,
    "attackSpeedPerLevel": 2.9
  },
  "Lissandra": {
    "baseAttackSpeed": 0.625,
    "attackSpeedBonusLevel1": 5,
    "attackSpeedPerLevel": 1.36
  },
  "Lucian": {
    "baseAttackSpeed": 0.638,
    "attackSpeedBonusLevel1": 0,
    "attackSpeedPerLevel": 3.3
  },
  "Lulu": {
    "baseAttackSpeed": 0.625,
    "attackSpeedBonusLevel1": 0,
    "attackSpeedPerLevel": 2.25
  },
  "Lux": {
    "baseAttackSpeed": 0.625,
    "attackSpeedBonusLevel1": 7,
    "attackSpeedPerLevel": 1
  },
  "Malphite": {
    "baseAttackSpeed": 0.638,
    "attackSpeedBonusLevel1": 15,
    "attackSpeedPerLevel": 3.4
  },
  "Malzahar": {
    "baseAttackSpeed": 0.625,
    "attackSpeedBonusLevel1": 0,
    "attackSpeedPerLevel": 1.5
  },
  "Maokai": {
    "baseAttackSpeed": 0.694,
    "attackSpeedBonusLevel1": 15.3,
    "attackSpeedPerLevel": 2.125
  },
  "MasterYi": {
    "baseAttackSpeed": 0.679,
    "attackSpeedBonusLevel1": 8,
    "attackSpeedPerLevel": 2
  },
  "MissFortune": {
    "baseAttackSpeed": 0.656,
    "attackSpeedBonusLevel1": 0,
    "attackSpeedPerLevel": 3
  },
  "MonkeyKing": {
    "baseAttackSpeed": 0.658,
    "attackSpeedBonusLevel1": 8,
    "attackSpeedPerLevel": 3
  },
  "Mordekaiser": {
    "baseAttackSpeed": 0.601,
    "attackSpeedBonusLevel1": 0,
    "attackSpeedPerLevel": 2.2
  },
  "Morgana": {
    "baseAttackSpeed": 0.625,
    "attackSpeedBonusLevel1": 0,
    "attackSpeedPerLevel": 1.53
  },
  "Nami": {
    "baseAttackSpeed": 0.644,
    "attackSpeedBonusLevel1": 0,
    "attackSpeedPerLevel": 2.61
  },
  "Nasus": {
    "baseAttackSpeed": 0.638,
    "attackSpeedBonusLevel1": 0,
    "attackSpeedPerLevel": 3.48
  },
  "Nautilus": {
    "baseAttackSpeed": 0.613,
    "attackSpeedBonusLevel1": 15,
    "attackSpeedPerLevel": 1
  },
  "Neeko": {
    "baseAttackSpeed": 0.645,
    "attackSpeedBonusLevel1": 0,
    "attackSpeedPerLevel": 3.5
  },
  "Nidalee": {
    "baseAttackSpeed": 0.638,
    "attackSpeedBonusLevel1": 0,
    "attackSpeedPerLevel": 3.22
  },
  "Nocturne": {
    "baseAttackSpeed": 0.668,
    "attackSpeedBonusLevel1": 8,
    "attackSpeedPerLevel": 2.7
  },
  "Nunu": {
    "baseAttackSpeed": 0.625,
    "attackSpeedBonusLevel1": 0,
    "attackSpeedPerLevel": 2.25
  },
  "Olaf": {
    "baseAttackSpeed": 0.694,
    "attackSpeedBonusLevel1": 0,
    "attackSpeedPerLevel": 2.7
  },
  "Orianna": {
    "baseAttackSpeed": 0.658,
    "attackSpeedBonusLevel1": 0,
    "attackSpeedPerLevel": 3.5
  },
  "Ornn": {
    "baseAttackSpeed": 0.625,
    "attackSpeedBonusLevel1": 0,
    "attackSpeedPerLevel": 2
  },
  "Pantheon": {
    "baseAttackSpeed": 0.644,
    "attackSpeedBonusLevel1": 8,
    "attackSpeedPerLevel": 2.95
  },
  "Poppy": {
    "baseAttackSpeed": 0.625,
    "attackSpeedBonusLevel1": 0,
    "attackSpeedPerLevel": 2.5
  },
  "Pyke": {
    "baseAttackSpeed": 0.667,
    "attackSpeedBonusLevel1": 0,
    "attackSpeedPerLevel": 2.5
  },
  "Quinn": {
    "baseAttackSpeed": 0.668,
    "attackSpeedBonusLevel1": 0,
    "attackSpeedPerLevel": 3.1
  },
  "Rakan": {
    "baseAttackSpeed": 0.635,
    "attackSpeedBonusLevel1": 0,
    "attackSpeedPerLevel": 3
  },
  "Rammus": {
    "baseAttackSpeed": 0.625,
    "attackSpeedBonusLevel1": 0,
    "attackSpeedPerLevel": 2.215
  },
  "RekSai": {
    "baseAttackSpeed": 0.667,
    "attackSpeedBonusLevel1": 0,
    "attackSpeedPerLevel": 2
  },
  "Renekton": {
    "baseAttackSpeed": 0.665,
    "attackSpeedBonusLevel1": 0,
    "attackSpeedPerLevel": 2.65
  },
  "Rengar": {
    "baseAttackSpeed": 0.666,
    "attackSpeedBonusLevel1": 0,
    "attackSpeedPerLevel": 3
  },
  "Riven": {
    "baseAttackSpeed": 0.625,
    "attackSpeedBonusLevel1": 0,
    "attackSpeedPerLevel": 3.5
  },
  "Rumble": {
    "baseAttackSpeed": 0.644,
    "attackSpeedBonusLevel1": 0,
    "attackSpeedPerLevel": 1.85
  },
  "Ryze": {
    "baseAttackSpeed": 0.625,
    "attackSpeedBonusLevel1": 0,
    "attackSpeedPerLevel": 2.112
  },
  "Sejuani": {
    "baseAttackSpeed": 0.625,
    "attackSpeedBonusLevel1": 0,
    "attackSpeedPerLevel": 3
  },
  "Shaco": {
    "baseAttackSpeed": 0.694,
    "attackSpeedBonusLevel1": 0,
    "attackSpeedPerLevel": 3
  },
  "Shen": {
    "baseAttackSpeed": 0.651,
    "attackSpeedBonusLevel1": 15,
    "attackSpeedPerLevel": 2
  },
  "Shyvana": {
    "baseAttackSpeed": 0.658,
    "attackSpeedBonusLevel1": 0,
    "attackSpeedPerLevel": 2.5
  },
  "Singed": {
    "baseAttackSpeed": 0.613,
    "attackSpeedBonusLevel1": 0,
    "attackSpeedPerLevel": 1.81
  },
  "Sion": {
    "baseAttackSpeed": 0.679,
    "attackSpeedBonusLevel1": 0,
    "attackSpeedPerLevel": 1.3
  },
  "Sivir": {
    "baseAttackSpeed": 0.625,
    "attackSpeedBonusLevel1": 0,
    "attackSpeedPerLevel": 1.6
  },
  "Skarner": {
    "baseAttackSpeed": 0.625,
    "attackSpeedBonusLevel1": 0,
    "attackSpeedPerLevel": 2.1
  },
  "Sona": {
    "baseAttackSpeed": 0.644,
    "attackSpeedBonusLevel1": 0,
    "attackSpeedPerLevel": 2.3
  },
  "Soraka": {
    "baseAttackSpeed": 0.625,
    "attackSpeedBonusLevel1": 0,
    "attackSpeedPerLevel": 2.14
  },
  "Swain": {
    "baseAttackSpeed": 0.625,
    "attackSpeedBonusLevel1": 0,
    "attackSpeedPerLevel": 2.11
  },
  "Syndra": {
    "baseAttackSpeed": 0.625,
    "attackSpeedBonusLevel1": 0,
    "attackSpeedPerLevel": 2
  },
  "TahmKench": {
    "baseAttackSpeed": 0.658,
    "attackSpeedBonusLevel1": 0,
    "attackSpeedPerLevel": 2.5
  },
  "Taliyah": {
    "baseAttackSpeed": 0.625,
    "attackSpeedBonusLevel1": 0,
    "attackSpeedPerLevel": 1.36
  },
  "Talon": {
    "baseAttackSpeed": 0.625,
    "attackSpeedBonusLevel1": 0,
    "attackSpeedPerLevel": 2.9
  },
  "Taric": {
    "baseAttackSpeed": 0.625,
    "attackSpeedBonusLevel1": 0,
    "attackSpeedPerLevel": 2
  },
  "Teemo": {
    "baseAttackSpeed": 0.69,
    "attackSpeedBonusLevel1": 0,
    "attackSpeedPerLevel": 3.38
  },
  "Thresh": {
    "baseAttackSpeed": 0.625,
    "attackSpeedBonusLevel1": 0,
    "attackSpeedPerLevel": 3.5
  },
  "Tristana": {
    "baseAttackSpeed": 0.656,
    "attackSpeedBonusLevel1": 0,
    "attackSpeedPerLevel": 1.5
  },
  "Trundle": {
    "baseAttackSpeed": 0.67,
    "attackSpeedBonusLevel1": 0,
    "attackSpeedPerLevel": 2.9
  },
  "Tryndamere": {
    "baseAttackSpeed": 0.67,
    "attackSpeedBonusLevel1": 0,
    "attackSpeedPerLevel": 2.9
  },
  "TwistedFate": {
    "baseAttackSpeed": 0.651,
    "attackSpeedBonusLevel1": 0,
    "attackSpeedPerLevel": 3.22
  },
  "Twitch": {
    "baseAttackSpeed": 0.679,
    "attackSpeedBonusLevel1": 0,
    "attackSpeedPerLevel": 3.38
  },
  "Udyr": {
    "baseAttackSpeed": 0.658,
    "attackSpeedBonusLevel1": 0,
    "attackSpeedPerLevel": 2.67
  },
  "Urgot": {
    "baseAttackSpeed": 0.625,
    "attackSpeedBonusLevel1": 0,
    "attackSpeedPerLevel": 3.75
  },
  "Varus": {
    "baseAttackSpeed": 0.658,
    "attackSpeedBonusLevel1": 0,
    "attackSpeedPerLevel": 3
  },
  "Vayne": {
    "baseAttackSpeed": 0.658,
    "attackSpeedBonusLevel1": 0,
    "attackSpeedPerLevel": 3.3
  },
  "Veigar": {
    "baseAttackSpeed": 0.625,
    "attackSpeedBonusLevel1": 0,
    "attackSpeedPerLevel": 2.24
  },
  "Velkoz": {
    "baseAttackSpeed": 0.625,
    "attackSpeedBonusLevel1": 0,
    "attackSpeedPerLevel": 1.36
  },
  "Vi": {
    "baseAttackSpeed": 0.644,
    "attackSpeedBonusLevel1": 0,
    "attackSpeedPerLevel": 2.5
  },
  "Viktor": {
    "baseAttackSpeed": 0.658,
    "attackSpeedBonusLevel1": 0,
    "attackSpeedPerLevel": 2.11
  },
  "Vladimir": {
    "baseAttackSpeed": 0.658,
    "attackSpeedBonusLevel1": 0,
    "attackSpeedPerLevel": 2
  },
  "Volibear": {
    "baseAttackSpeed": 0.658,
    "attackSpeedBonusLevel1": 0,
    "attackSpeedPerLevel": 2.67
  },
  "Warwick": {
    "baseAttackSpeed": 0.638,
    "attackSpeedBonusLevel1": 0,
    "attackSpeedPerLevel": 2.3
  },
  "Xayah": {
    "baseAttackSpeed": 0.625,
    "attackSpeedBonusLevel1": 0,
    "attackSpeedPerLevel": 3.3
  },
  "Xerath": {
    "baseAttackSpeed": 0.625,
    "attackSpeedBonusLevel1": 0,
    "attackSpeedPerLevel": 1.36
  },
  "XinZhao": {
    "baseAttackSpeed": 0.645,
    "attackSpeedBonusLevel1": 0,
    "attackSpeedPerLevel": 3.5
  },
  "Yasuo": {
    "baseAttackSpeed": 0.67,
    "attackSpeedBonusLevel1": 0,
    "attackSpeedPerLevel": 2.5
  },
  "Yorick": {
    "baseAttackSpeed": 0.625,
    "attackSpeedBonusLevel1": 0,
    "attackSpeedPerLevel": 2
  },
  "Zac": {
    "baseAttackSpeed": 0.638,
    "attackSpeedBonusLevel1": 15,
    "attackSpeedPerLevel": 1.6
  },
  "Zed": {
    "baseAttackSpeed": 0.651,
    "attackSpeedBonusLevel1": 0,
    "attackSpeedPerLevel": 2.1
  },
  "Ziggs": {
    "baseAttackSpeed": 0.656,
    "attackSpeedBonusLevel1": 0,
    "attackSpeedPerLevel": 2
  },
  "Zilean": {
    "baseAttackSpeed": 0.625,
    "attackSpeedBonusLevel1": 0,
    "attackSpeedPerLevel": 2.13
  },
  "Zoe": {
    "baseAttackSpeed": 0.625,
    "attackSpeedBonusLevel1": 0,
    "attackSpeedPerLevel": 2.5
  },
  "Zyra": {
    "baseAttackSpeed": 0.625,
    "attackSpeedBonusLevel1": 0,
    "attackSpeedPerLevel": 2.11
  }
}
