{
  "Aatrox": {
    "ratings": {
      "health": 4,
      "armor": 4,
      "resist": 4
    }
  },
  "Ahri": {
    "ratings": {
      "health": 2,
      "armor": 3,
      "resist": 0
    }
  },
  "Akali": {
    "ratings": {
      "health": 4,
      "armor": 4,
      "resist": 4
    }
  },
  "Alistar": {
    "ratings": {
      "health": 7,
      "armor": 7,
      "resist": 7
    }
  },
  "Amumu": {
    "ratings": {
      "health": 7,
      "armor": 7,
      "resist": 7
    }
  },
  "Anivia": {
    "ratings": {
      "health": 3,
      "armor": 3,
      "resist": 0
    }
  },
  "Annie": {
    "ratings": {
      "health": 3,
      "armor": 3,
      "resist": 0
    }
  },
  "Ashe": {
    "ratings": {
      "health": 2,
      "armor": 2,
      "resist": 0
    }
  },
  "AurelionSol": {
    "ratings": {
      "health": 4,
      "armor": 3,
      "resist": 0
    }
  },
  "Azir": {
    "ratings": {
      "health": 3,
      "armor": 3,
      "resist": 0
    }
  },
  "Bard": {
    "ratings": {
      "health": 4,
      "armor": 4,
      "resist": 4
    }
  },
  "Blitzcrank": {
    "ratings": {
      "health": 4,
      "armor": 5,
      "resist": 5
    }
  },
  "Brand": {
    "ratings": {
      "health": 2,
      "armor": 2,
      "resist": 0
    }
  },
  "Braum": {
    "ratings": {
      "health": 5,
      "armor": 5,
      "resist": 5
    }
  },
  "Caitlyn": {
    "ratings": {
      "health": 2,
      "armor": 2,
      "resist": 0
    }
  },
  "Camille": {
    "ratings": {
      "health": 4,
      "armor": 4,
      "resist": 4
    }
  },
  "Cassiopeia": {
    "ratings": {
      "health": 4,
      "armor": 4,
      "resist": 4
    }
  },
  "Chogath": {
    "ratings": {
      "health": 9,
      "armor": 7,
      "resist": 7
    }
  },
  "Corki": {
    "ratings": {
      "health": 2,
      "armor": 2,
      "resist": 0
    }
  },
  "Darius": {
    "ratings": {
      "health": 6,
      "armor": 6,
      "resist": 6
    }
  },
  "Diana": {
    "ratings": {
      "health": 4,
      "armor": 4,
      "resist": 4
    }
  },
  "DrMundo": {
    "ratings": {
      "health": 7,
      "armor": 7,
      "resist": 7
    }
  },
  "Draven": {
    "ratings": {
      "health": 2,
      "armor": 2,
      "resist": 0
    }
  },
  "Ekko": {
    "ratings": {
      "health": 3,
      "armor": 3,
      "resist": 0
    }
  },
  "Elise": {
    "ratings": {
      "health": 5,
      "armor": 5,
      "resist": 5
    }
  },
  "Evelynn": {
    "ratings": {
      "health": 3,
      "armor": 3,
      "resist": 0
    }
  },
  "Ezreal": {
    "ratings": {
      "health": 2,
      "armor": 2,
      "resist": 0
    }
  },
  "Fiddlesticks": {
    "ratings": {
      "health": 2,
      "armor": 3,
      "resist": 0
    }
  },
  "Fiora": {
    "ratings": {
      "health": 3,
      "armor": 3,
      "resist": 0
    }
  },
  "Fizz": {
    "ratings": {
      "health": 2,
      "armor": 3,
      "resist": 0
    }
  },
  "Galio": {
    "ratings": {
      "health": 5,
      "armor": 6,
      "resist": 6
    }
  },
  "Gangplank": {
    "ratings": {
      "health": 2,
      "armor": 2,
      "resist": 0
    }
  },
  "Garen": {
    "ratings": {
      "health": 6,
      "armor": 6,
      "resist": 6
    }
  },
  "Gnar": {
    "ratings": {
      "health": 6,
      "armor": 5,
      "resist": 5
    }
  },
  "Gragas": {
    "ratings": {
      "health": 6,
      "armor": 6,
      "resist": 6
    }
  },
  "Graves": {
    "ratings": {
      "health": 4,
      "armor": 4,
      "resist": 4
    }
  },
  "Hecarim": {
    "ratings": {
      "health": 5,
      "armor": 5,
      "resist": 5
    }
  },
  "Heimerdinger": {
    "ratings": {
      "health": 3,
      "armor": 3,
      "resist": 0
    }
  },
  "Illaoi": {
    "ratings": {
      "health": 4,
      "armor": 4,
      "resist": 4
    }
  },
  "Irelia": {
    "ratings": {
      "health": 5,
      "armor": 5,
      "resist": 5
    }
  },
  "Ivern": {
    "ratings": {
      "health": 3,
      "armor": 3,
      "resist": 0
    }
  },
  "Janna": {
    "ratings": {
      "health": 2,
      "armor": 2,
      "resist": 0
    }
  },
  "JarvanIV": {
    "ratings": {
      "health": 5,
      "armor": 5,
      "resist": 5
    }
  },
  "Jax": {
    "ratings": {
      "health": 4,
      "armor": 4,
      "resist": 4
    }
  },
  "Jayce": {
    "ratings": {
      "health": 2,
      "armor": 2,
      "resist": 0
    }
  },
  "Jhin": {
    "ratings": {
      "health": 2,
      "armor": 2,
      "resist": 0
    }
  },
  "Jinx": {
    "ratings": {
      "health": 2,
      "armor": 2,
      "resist": 0
    }
  },
  "Kaisa": {
    "ratings": {
      "health": 2,
      "armor": 2,
      "resist": 0
    }
  },
  "Kalista": {
    "ratings": {
      "health": 2,
      "armor": 2,
      "resist": 0
    }
  },
  "Karma": {
    "ratings": {
      "health": 2,
      "armor": 2,
      "resist": 0
    }
  },
  "Karthus": {
    "ratings": {
      "health": 2,
      "armor": 2,
      "resist": 0
    }
  },
  "Kassadin": {
    "ratings": {
      "health": 4,
      "armor": 3,
      "resist": 0
    }
  },
  "Katarina": {
    "ratings": {
      "health": 3,
      "armor": 3,
      "resist": 0
    }
  },
  "Kayle": {
    "ratings": {
      "health": 2,
      "armor": 2,
      "resist": 0
    }
  },
  "Kayn": {
    "ratings": {
      "health": 3,
      "armor": 3,
      "resist": 0
    }
  },
  "Kennen": {
    "ratings": {
      "health": 2,
      "armor": 3,
      "resist": 0
    }
  },
  "Khazix": {
    "ratings": {
      "health": 2,
      "armor": 2,
      "resist": 0
    }
  },
  "Kindred": {
    "ratings": {
      "health": 2,
      "armor": 2,
      "resist": 0
    }
  },
  "Kled": {
    "ratings": {
      "health": 6,
      "armor": 3,
      "resist": 0
    }
  },
  "KogMaw": {
    "ratings": {
      "health": 2,
      "armor": 2,
      "resist": 0
    }
  },
  "Leblanc": {
    "ratings": {
      "health": 2,
      "armor": 2,
      "resist": 0
    }
  },
  "LeeSin": {
    "ratings": {
      "health": 4,
      "armor": 4,
      "resist": 4
    }
  },
  "Leona": {
    "ratings": {
      "health": 4,
      "armor": 5,
      "resist": 5
    }
  },
  "Lissandra": {
    "ratings": {
      "health": 3,
      "armor": 3,
      "resist": 0
    }
  },
  "Lucian": {
    "ratings": {
      "health": 2,
      "armor": 2,
      "resist": 0
    }
  },
  "Lulu": {
    "ratings": {
      "health": 2,
      "armor": 2,
      "resist": 0
    }
  },
  "Lux": {
    "ratings": {
      "health": 2,
      "armor": 3,
      "resist": 0
    }
  },
  "Malphite": {
    "ratings": {
      "health": 7,
      "armor": 8,
      "resist": 7
    }
  },
  "Malzahar": {
    "ratings": {
      "health": 4,
      "armor": 3,
      "resist": 0
    }
  },
  "MasterYi": {
    "ratings": {
      "health": 2,
      "armor": 3,
      "resist": 0
    }
  },
  "Maokai": {
    "ratings": {
      "health": 7,
      "armor": 7,
      "resist": 7
    }
  },
  "MissFortune": {
    "ratings": {
      "health": 2,
      "armor": 2,
      "resist": 0
    }
  },
  "Mordekaiser": {
    "ratings": {
      "health": 4,
      "armor": 4,
      "resist": 4
    }
  },
  "Morgana": {
    "ratings": {
      "health": 2,
      "armor": 3,
      "resist": 0
    }
  },
  "Nami": {
    "ratings": {
      "health": 3,
      "armor": 2,
      "resist": 0
    }
  },
  "Nasus": {
    "ratings": {
      "health": 7,
      "armor": 7,
      "resist": 7
    }
  },
  "Nautilus": {
    "ratings": {
      "health": 6,
      "armor": 6,
      "resist": 6
    }
  },
  "Neeko": {
    "ratings": {
      "health": 3,
      "armor": 3,
      "resist": 0
    }
  },
  "Nidalee": {
    "ratings": {
      "health": 3,
      "armor": 3,
      "resist": 0
    }
  },
  "Nocturne": {
    "ratings": {
      "health": 3,
      "armor": 3,
      "resist": 0
    }
  },
  "Nunu": {
    "ratings": {
      "health": 7,
      "armor": 7,
      "resist": 7
    }
  },
  "Olaf": {
    "ratings": {
      "health": 6,
      "armor": 6,
      "resist": 6
    }
  },
  "Orianna": {
    "ratings": {
      "health": 2,
      "armor": 3,
      "resist": 0
    }
  },
  "Ornn": {
    "ratings": {
      "health": 6,
      "armor": 6,
      "resist": 6
    }
  },
  "Pantheon": {
    "ratings": {
      "health": 3,
      "armor": 3,
      "resist": 0
    }
  },
  "Poppy": {
    "ratings": {
      "health": 6,
      "armor": 7,
      "resist": 7
    }
  },
  "Pyke": {
    "ratings": {
      "health": 4,
      "armor": 4,
      "resist": 4
    }
  },
  "Quinn": {
    "ratings": {
      "health": 2,
      "armor": 2,
      "resist": 0
    }
  },
  "Rakan": {
    "ratings": {
      "health": 3,
      "armor": 3,
      "resist": 0
    }
  },
  "Rammus": {
    "ratings": {
      "health": 7,
      "armor": 9,
      "resist": 7
    }
  },
  "RekSai": {
    "ratings": {
      "health": 6,
      "armor": 6,
      "resist": 6
    }
  },
  "Renekton": {
    "ratings": {
      "health": 7,
      "armor": 5,
      "resist": 5
    }
  },
  "Rengar": {
    "ratings": {
      "health": 2,
      "armor": 2,
      "resist": 0
    }
  },
  "Riven": {
    "ratings": {
      "health": 3,
      "armor": 3,
      "resist": 0
    }
  },
  "Rumble": {
    "ratings": {
      "health": 3,
      "armor": 3,
      "resist": 0
    }
  },
  "Ryze": {
    "ratings": {
      "health": 4,
      "armor": 4,
      "resist": 4
    }
  },
  "Sejuani": {
    "ratings": {
      "health": 7,
      "armor": 7,
      "resist": 7
    }
  },
  "Shaco": {
    "ratings": {
      "health": 3,
      "armor": 3,
      "resist": 0
    }
  },
  "Shen": {
    "ratings": {
      "health": 6,
      "armor": 6,
      "resist": 6
    }
  },
  "Shyvana": {
    "ratings": {
      "health": 6,
      "armor": 6,
      "resist": 6
    }
  },
  "Singed": {
    "ratings": {
      "health": 7,
      "armor": 6,
      "resist": 6
    }
  },
  "Sion": {
    "ratings": {
      "health": 6,
      "armor": 6,
      "resist": 6
    }
  },
  "Sivir": {
    "ratings": {
      "health": 2,
      "armor": 2,
      "resist": 0
    }
  },
  "Skarner": {
    "ratings": {
      "health": 6,
      "armor": 6,
      "resist": 6
    }
  },
  "Sona": {
    "ratings": {
      "health": 2,
      "armor": 2,
      "resist": 0
    }
  },
  "Soraka": {
    "ratings": {
      "health": 2,
      "armor": 2,
      "resist": 0
    }
  },
  "Swain": {
    "ratings": {
      "health": 5,
      "armor": 5,
      "resist": 5
    }
  },
  "Syndra": {
    "ratings": {
      "health": 2,
      "armor": 2,
      "resist": 0
    }
  },
  "TahmKench": {
    "ratings": {
      "health": 6,
      "armor": 5,
      "resist": 5
    }
  },
  "Taliyah": {
    "ratings": {
      "health": 2,
      "armor": 2,
      "resist": 0
    }
  },
  "Talon": {
    "ratings": {
      "health": 3,
      "armor": 3,
      "resist": 0
    }
  },
  "Taric": {
    "ratings": {
      "health": 6,
      "armor": 7,
      "resist": 6
    }
  },
  "Teemo": {
    "ratings": {
      "health": 3,
      "armor": 2,
      "resist": 0
    }
  },
  "Thresh": {
    "ratings": {
      "health": 5,
      "armor": 5,
      "resist": 5
    }
  },
  "Tristana": {
    "ratings": {
      "health": 2,
      "armor": 2,
      "resist": 0
    }
  },
  "Trundle": {
    "ratings": {
      "health": 6,
      "armor": 7,
      "resist": 7
    }
  },
  "Tryndamere": {
    "ratings": {
      "health": 3,
      "armor": 2,
      "resist": 0
    }
  },
  "TwistedFate": {
    "ratings": {
      "health": 2,
      "armor": 3,
      "resist": 0
    }
  },
  "Twitch": {
    "ratings": {
      "health": 2,
      "armor": 2,
      "resist": 0
    }
  },
  "Udyr": {
    "ratings": {
      "health": 6,
      "armor": 6,
      "resist": 6
    }
  },
  "Urgot": {
    "ratings": {
      "health": 6,
      "armor": 5,
      "resist": 5
    }
  },
  "Varus": {
    "ratings": {
      "health": 2,
      "armor": 2,
      "resist": 0
    }
  },
  "Vayne": {
    "ratings": {
      "health": 2,
      "armor": 2,
      "resist": 0
    }
  },
  "Veigar": {
    "ratings": {
      "health": 2,
      "armor": 3,
      "resist": 0
    }
  },
  "Velkoz": {
    "ratings": {
      "health": 2,
      "armor": 2,
      "resist": 0
    }
  },
  "Vi": {
    "ratings": {
      "health": 4,
      "armor": 4,
      "resist": 4
    }
  },
  "Viktor": {
    "ratings": {
      "health": 2,
      "armor": 2,
      "resist": 0
    }
  },
  "Volibear": {
    "ratings": {
      "health": 7,
      "armor": 6,
      "resist": 6
    }
  },
  "Vladimir": {
    "ratings": {
      "health": 4,
      "armor": 4,
      "resist": 4
    }
  },
  "Warwick": {
    "ratings": {
      "health": 5,
      "armor": 5,
      "resist": 5
    }
  },
  "MonkeyKing": {
    "ratings": {
      "health": 4,
      "armor": 4,
      "resist": 4
    }
  },
  "Xayah": {
    "ratings": {
      "health": 2,
      "armor": 2,
      "resist": 0
    }
  },
  "Xerath": {
    "ratings": {
      "health": 2,
      "armor": 2,
      "resist": 0
    }
  },
  "XinZhao": {
    "ratings": {
      "health": 4,
      "armor": 4,
      "resist": 4
    }
  },
  "Yasuo": {
    "ratings": {
      "health": 2,
      "armor": 2,
      "resist": 0
    }
  },
  "Yorick": {
    "ratings": {
      "health": 6,
      "armor": 6,
      "resist": 6
    }
  },
  "Zac": {
    "ratings": {
      "health": 7,
      "armor": 7,
      "resist": 7
    }
  },
  "Zed": {
    "ratings": {
      "health": 3,
      "armor": 3,
      "resist": 0
    }
  },
  "Ziggs": {
    "ratings": {
      "health": 2,
      "armor": 2,
      "resist": 0
    }
  },
  "Zilean": {
    "ratings": {
      "health": 2,
      "armor": 2,
      "resist": 0
    }
  },
  "Zoe": {
    "ratings": {
      "health": 2,
      "armor": 2,
      "resist": 0
    }
  },
  "Zyra": {
    "ratings": {
      "health": 2,
      "armor": 2,
      "resist": 0
    }
  }
}